SuperflowAna    Run mode: nominal
ChainHelper::addInput adding dir ./test_susyNt_samples/user.alarmstr.data17_13TeV.00337705.physics_Main.SusyNt.p3704_n0308_nt/
PathResolver             WARNING Locating dev file dev/PMGTools/PMGxsecDB_mc16.txt. Do not let this propagate to a release
ToolSvc.PMGCrossSectio...INFO    Initializing ToolSvc.PMGCrossSectionTool...
PathResolver             WARNING Locating dev file dev/PMGTools/PMGxsecDB_mc16.txt. Do not let this propagate to a release
>>> Setting analysis type to Ana_2Lep
SuperflowAna    ------------------------------ ------------------------------
SuperflowAna     Setting MC normalization (luminosity) to 1000 pb^-1.
SuperflowAna    ----------------------------- -------------------------------
SuperflowAna    Total Entries: 2317778
SuperflowAna    New cut: read in
SuperflowAna    New cut: Pass GRL
SuperflowAna    New cut: Error flags
SuperflowAna    New cut: pass Good Vertex
SuperflowAna    New cut: pass bad muon veto
SuperflowAna    New cut: pass cosmic muon veto
SuperflowAna    New cut: pass jet cleaning
SuperflowAna    New cut: exactly two base leptons
SuperflowAna    New cut: m_ll > 20 GeV
SuperflowAna    New cut: tau veto
SuperflowAna    New cut: exactly two signal leptons
SuperflowAna    New cut: opposite sign
SuperflowAna    New var: event weight (multi period)
SuperflowAna        HFT: eventweight_multi
SuperflowAna    New var: event weight (single period)
SuperflowAna        HFT: eventweight_single
SuperflowAna    New var: Period weight
SuperflowAna        HFT: period_weight
SuperflowAna    New var: Monte-Carlo generator event weight
SuperflowAna        HFT: w
SuperflowAna    New var: Pile-up weight (Multi-period)
SuperflowAna        HFT: pupw_multi
SuperflowAna    New var: Pile-up weight (Single-period)
SuperflowAna        HFT: pupw_single
SuperflowAna    New var: Lepton scale factor
SuperflowAna        HFT: lepSf
SuperflowAna    New var: Trigger scale factor
SuperflowAna        HFT: trigSf
SuperflowAna    New var: B-tag scale factor
SuperflowAna        HFT: btagSf
SuperflowAna    New var: JVT scale factor
SuperflowAna        HFT: jvtSf
SuperflowAna    New var: Event run number
SuperflowAna        HFT: runNumber
SuperflowAna    New var: Event number
SuperflowAna        HFT: eventNumber
SuperflowAna    New var: lumi block
SuperflowAna        HFT: lb
SuperflowAna    New var: is Monte Carlo
SuperflowAna        HFT: isMC
SuperflowAna    New var: mcChannel (dsid)
SuperflowAna        HFT: dsid
SuperflowAna    New var: treatAsYear
SuperflowAna        HFT: treatAsYear
SuperflowAna    New var: Average Mu
SuperflowAna        HFT: avgMu
SuperflowAna    New var: Average Mu (Data DF)
SuperflowAna        HFT: avgMuDataSF
SuperflowAna    New var: Actual Mu
SuperflowAna        HFT: actualMu
SuperflowAna    New var: Actual Mu (Data SF)
SuperflowAna        HFT: actualMuDataSF
SuperflowAna    New var: Number of vertices
SuperflowAna        HFT: nVtx
SuperflowAna    New var: Number of tracks associated with primary vertex
SuperflowAna        HFT: nTracksAtPV
SuperflowAna    New var: HLT_e24_lhmedium_L1EM20VH trigger bit
SuperflowAna        HFT: HLT_e24_lhmedium_L1EM20VH
SuperflowAna    New var: HLT_e60_lhmedium trigger bit
SuperflowAna        HFT: HLT_e60_lhmedium
SuperflowAna    New var: HLT_e120_lhloose trigger bit
SuperflowAna        HFT: HLT_e120_lhloose
SuperflowAna    New var: HLT_2e12_lhloose_L12EM10VH trigger bit
SuperflowAna        HFT: HLT_2e12_lhloose_L12EM10VH
SuperflowAna    New var: HLT_mu20_iloose_L1MU15 trigger bit
SuperflowAna        HFT: HLT_mu20_iloose_L1MU15
SuperflowAna    New var: HLT_mu40 trigger bit
SuperflowAna        HFT: HLT_mu40
SuperflowAna    New var: HLT_2mu10 trigger bit
SuperflowAna        HFT: HLT_2mu10
SuperflowAna    New var: HLT_mu18_mu8noL1 trigger bit
SuperflowAna        HFT: HLT_mu18_mu8noL1
SuperflowAna    New var: HLT_e17_lhloose_mu14 trigger bit
SuperflowAna        HFT: HLT_e17_lhloose_mu14
SuperflowAna    New var: HLT_e7_lhmedium_mu24 trigger bit
SuperflowAna        HFT: HLT_e7_lhmedium_mu24
SuperflowAna    New var: HLT_2e17_lhvloose_nod0 trigger bit
SuperflowAna        HFT: HLT_2e17_lhvloose_nod0
SuperflowAna    New var: HLT_e26_lhmedium_nod0_L1EM22VHI_mu8noL1 trigger bit
SuperflowAna        HFT: HLT_e26_lhmedium_nod0_L1EM22VHI_mu8noL1
SuperflowAna    New var: HLT_e26_lhtight_nod0_ivarloose trigger bit
SuperflowAna        HFT: HLT_e26_lhtight_nod0_ivarloose
SuperflowAna    New var: HLT_e60_lhmedium_nod0 trigger bit
SuperflowAna        HFT: HLT_e60_lhmedium_nod0
SuperflowAna    New var: HLT_e140_lhloose_nod0 trigger bit
SuperflowAna        HFT: HLT_e140_lhloose_nod0
SuperflowAna    New var: HLT_mu26_ivarmedium trigger bit
SuperflowAna        HFT: HLT_mu26_ivarmedium
SuperflowAna    New var: HLT_mu50 trigger bit
SuperflowAna        HFT: HLT_mu50
SuperflowAna    New var: HLT_2mu14 trigger bit
SuperflowAna        HFT: HLT_2mu14
SuperflowAna    New var: HLT_mu22_mu8noL1 trigger bit
SuperflowAna        HFT: HLT_mu22_mu8noL1
SuperflowAna    New var: HLT_e17_lhloose_nod0_mu14 trigger bit
SuperflowAna        HFT: HLT_e17_lhloose_nod0_mu14
SuperflowAna    New var: HLT_e7_lhmedium_nod0_mu24 trigger bit
SuperflowAna        HFT: HLT_e7_lhmedium_nod0_mu24
SuperflowAna    New var: HLT_2e24_lhvloose_nod0 trigger bit
SuperflowAna        HFT: HLT_2e24_lhvloose_nod0
SuperflowAna    New var: HLT_e26_lhmedium_nod0_mu8noL1 trigger bit
SuperflowAna        HFT: HLT_e26_lhmedium_nod0_mu8noL1
SuperflowAna    New var: HLT_2e17_lhvloose_nod0_L12EM15VHI trigger bit
SuperflowAna        HFT: HLT_2e17_lhvloose_nod0_L12EM15VHI
SuperflowAna    New var: Pass single lepton triggers
SuperflowAna        HFT: passSingleLepTrigs
SuperflowAna    New var: Pass dilepton triggers
SuperflowAna        HFT: passDilepTrigs
SuperflowAna    New var: Pass single or dilepton triggers
SuperflowAna        HFT: passLepTrigs
SuperflowAna    New var: lepton-1 Pt
SuperflowAna        HFT: lept1Pt
SuperflowAna    New var: lepton-1 Eta
SuperflowAna        HFT: lept1Eta
SuperflowAna    New var: lepton-1 Phi
SuperflowAna        HFT: lept1Phi
SuperflowAna    New var: lepton-1 Energy
SuperflowAna        HFT: lept1E
SuperflowAna    New var: lepton-1 charge
SuperflowAna        HFT: lept1q
SuperflowAna    New var: lepton-1 flavor
SuperflowAna        HFT: lept1Flav
SuperflowAna    New var: lepton-2 Pt
SuperflowAna        HFT: lept2Pt
SuperflowAna    New var: lepton-2 Eta
SuperflowAna        HFT: lept2Eta
SuperflowAna    New var: lepton-2 Phi
SuperflowAna        HFT: lept2Phi
SuperflowAna    New var: lepton-2 Energy
SuperflowAna        HFT: lept2E
SuperflowAna    New var: lepton-2 charge
SuperflowAna        HFT: lept2q
SuperflowAna    New var: lepton-2 flavor
SuperflowAna        HFT: lept2Flav
SuperflowAna    New var: number of light jets
SuperflowAna        HFT: nLightJets
SuperflowAna    New var: number of b-tagged jets
SuperflowAna        HFT: nBJets
SuperflowAna    New var: number of forward jets
SuperflowAna        HFT: nForwardJets
SuperflowAna    New var: jet-1 Pt
SuperflowAna        HFT: jet1Pt
SuperflowAna    New var: jet-1 Eta
SuperflowAna        HFT: jet1Eta
SuperflowAna    New var: jet-1 Phi
SuperflowAna        HFT: jet1Phi
SuperflowAna    New var: jet-2 Pt
SuperflowAna        HFT: jet2Pt
SuperflowAna    New var: jet-2 Eta
SuperflowAna        HFT: jet2Eta
SuperflowAna    New var: jet-2 Phi
SuperflowAna        HFT: jet2Phi
SuperflowAna    New var: transverse missing energy (Et)
SuperflowAna        HFT: met
SuperflowAna    New var: transverse missing energy (Phi)
SuperflowAna        HFT: metPhi
SuperflowAna    New var: Etmiss Rel
SuperflowAna        HFT: metrel
SuperflowAna    New var: delta Phi of leading lepton and met
SuperflowAna        HFT: deltaPhi_met_l1
SuperflowAna    New var: delta Phi of subleading lepton and met
SuperflowAna        HFT: deltaPhi_met_l2
SuperflowAna    New var: is e + e
SuperflowAna        HFT: isElEl
SuperflowAna    New var: is e + mu
SuperflowAna        HFT: isElMu
SuperflowAna    New var: is mu + mu
SuperflowAna        HFT: isMuMu
SuperflowAna    New var: is opposite-sign
SuperflowAna        HFT: isOS
SuperflowAna    New var: is Mu (lead) + E (sub)
SuperflowAna        HFT: isME
SuperflowAna    New var: is E (lead) + Mu (sub)
SuperflowAna        HFT: isEM
SuperflowAna    New var: mass of di-lepton system
SuperflowAna        HFT: mll
SuperflowAna    New var: Pt of di-lepton system
SuperflowAna        HFT: pTll
SuperflowAna    New var: delta Eta of di-lepton system
SuperflowAna        HFT: deta_ll
SuperflowAna    New var: delta Phi of di-lepton system
SuperflowAna        HFT: dphi_ll
SuperflowAna    New var: stransverse mass
SuperflowAna        HFT: MT2
SuperflowAna    New var: Super-Razor Var: shatr
SuperflowAna        HFT: shatr
SuperflowAna    New var: Super-Razor Var: mDeltaR
SuperflowAna        HFT: mDeltaR
SuperflowAna    New var: Ht (m_Eff: lep + met + jet)
SuperflowAna        HFT: ht
SuperflowAna    New systematic: shift in electron ID efficiency
SuperflowAna        weight systematics: EL_EFF_IDUP/EL_EFF_IDDOWN
SuperflowAna    New systematic: shift in electron ISO efficiency
SuperflowAna        weight systematics: EL_EFF_IsoUP/EL_EFF_IsoDOWN
SuperflowAna    New systematic: shift in electron RECO efficiency
SuperflowAna        weight systematics: EL_EFF_RecoUP/EL_EFF_RecoDOWN
SuperflowAna    New systematic: shift in e-gamma resolution (UP)
SuperflowAna        event systematic: EG_RESOLUTION_ALL_UP
SuperflowAna    New systematic: shift in e-gamma resolution (DOWN)
SuperflowAna        event systematic: EG_RESOLUTION_ALL_DN
SuperflowAna    New systematic: shift in e-gamma scale (UP)
SuperflowAna        event systematic: EG_SCALE_ALL_UP
SuperflowAna    Superflow::Begin
SuperflowAna    Superflow::Begin    Input sample: ./test_susyNt_samples/user.alarmstr.data17_13TeV.00337705.physics_Main.SusyNt.p3704_n0308_nt/
SuperflowAna    Superflow::Init

SuperflowAna    Superflow::Init    ================ Sample Information ==============
SuperflowAna    Superflow::Init     Input container name  : data17_13TeV.00337705.physics_Main.deriv.DAOD_SUSY2.r10258_p3399_p3704
SuperflowAna    Superflow::Init     Output container name : user.alarmstr.data17_13TeV.00337705.physics_Main.SusyNt.p3704_n0308/
SuperflowAna    Superflow::Init     SusyNt production tag : n0308
SuperflowAna    Superflow::Init     SusyNt production cmd :  NtMaker -f gridFileList.txt --nLepFilter 1 --input data17_13TeV.00337705.physics_Main.deriv.DAOD_SUSY2.r10258_p3399_p3704 --output user.alarmstr.data17_13TeV.00337705.physics_Main.SusyNt.p3704_n0308/ --tag n0308 --trigFilter
SuperflowAna    Superflow::Init    ==================================================
SuperflowAna    Superflow::Init    Switching run mode to SuperflowRunMode::data
SuperflowAna    SuperflowBase::determine_output_filename    ====== Determined input data specifications ====== 
SuperflowAna    SuperflowBase::determine_output_filename     stream: Main 
SuperflowAna    SuperflowBase::determine_output_filename     run   : 337705
SuperflowAna    SuperflowBase::determine_output_filename    ==================================================

SuperflowAna    SuperflowBase::determine_output_filename    Setting output file name to: CENTRAL_physics_Main_2017_337705.root
SuperflowAna    SuperflowBase::determine_output_filename    Setting output tree name to: superNt
SuperflowAna    Superflow::Process    **** Processing entry      0 run 337705 event 338941366 ****
SuperflowAna    Superflow::Process    **** Processing entry   5000 run 337705 event 342943517 ****
SuperflowAna    Superflow::Terminate
SuperflowAna    ------------------------------ ------------------------------
SuperflowAna     Raw cutflow 
SuperflowAna    ----------------------------- -------------------------------
SuperflowAna    Cut 0 : read in                         : 10000
SuperflowAna    Cut 1 : Pass GRL                        : 10000
SuperflowAna    Cut 2 : Error flags                     : 9998
SuperflowAna    Cut 3 : pass Good Vertex                : 9998
SuperflowAna    Cut 4 : pass bad muon veto              : 9997
SuperflowAna    Cut 5 : pass cosmic muon veto           : 9814
SuperflowAna    Cut 6 : pass jet cleaning               : 9604
SuperflowAna    Cut 7 : exactly two base leptons        : 3302
SuperflowAna    Cut 8 : m_ll > 20 GeV                   : 2892
SuperflowAna    Cut 9 : tau veto                        : 2876
SuperflowAna    Cut 10: exactly two signal leptons      : 1939
SuperflowAna    Cut 11: opposite sign                   : 1920
SuperflowAna    
SuperflowAna    
SuperflowAna    ------------------------------ ------------------------------
SuperflowAna     Weighted cutflow 
SuperflowAna    ------------------------------- -----------------------------
SuperflowAna    Cut 0 : read in                         : 0
SuperflowAna    Cut 1 : Pass GRL                        : 0
SuperflowAna    Cut 2 : Error flags                     : 0
SuperflowAna    Cut 3 : pass Good Vertex                : 0
SuperflowAna    Cut 4 : pass bad muon veto              : 0
SuperflowAna    Cut 5 : pass cosmic muon veto           : 0
SuperflowAna    Cut 6 : pass jet cleaning               : 0
SuperflowAna    Cut 7 : exactly two base leptons        : 0
SuperflowAna    Cut 8 : m_ll > 20 GeV                   : 0
SuperflowAna    Cut 9 : tau veto                        : 0
SuperflowAna    Cut 10: exactly two signal leptons      : 0
SuperflowAna    Cut 11: opposite sign                   : 0
SuperflowAna    
SuperflowAna    
SuperflowAna    SuperflowBase::write_output_files    Files OK.
SuperflowAna    SuperflowBase::Terminate    Done.

---------------------------------------------------
 Number of events processed: 10000 
---------------------------------------------------

SuperflowAna    Done.
